A Can Of Worms
…
The table checklist contains columns Y, T and S.
They contain the period of time \(Y_i = i\), the number of active taxonomists \(T_i\) and the number of published species \(S_i\).
The first period (\(i = 1\)) is 1822-1827.
The last one (\(i = 41\)) is 2018-2022.

show

library("tidyverse")
read_csv2("data/checklist.csv") %>%
    # Delete periods without new species
filter(S > 0) %>%
    print() -> checklist

# A tibble: 40 × 3
       Y     T     S
   <dbl> <dbl> <dbl>
 1     1     1     1
 2     2     1    15
 3     3     1     5
 4     4     3     4
 5     6     2     4
 6     7     1     1
 7     8     3     4
 8     9     1     6
 9    10     2    13
10    11     3    14
# ℹ 30 more rows
…
